* prologue.png size 512 1024
enemy_rot_02_attack-00.png 0 0 22 71 off -10 -61
enemy_rot_02_gethit-00.png 23 0 22 71 off -10 -61
enemy_rot_02_stand-00.png 46 0 22 71 off -10 -61
enemy_rot_02_walk-00.png 69 0 22 71 off -10 -61
enemy_rot_06_attack-00.png 92 0 26 71 off -15 -61
enemy_rot_06_gethit-00.png 119 0 26 71 off -15 -61
enemy_rot_06_stand-00.png 146 0 26 71 off -15 -61
enemy_rot_06_walk-00.png 173 0 26 71 off -15 -61
enemy_rot_01_attack-00.png 200 0 48 69 off -23 -60
enemy_rot_01_gethit-00.png 249 0 48 69 off -23 -60
enemy_rot_01_stand-00.png 298 0 48 69 off -23 -60
enemy_rot_01_walk-00.png 347 0 48 69 off -23 -60
enemy_rot_05_attack-00.png 396 0 44 67 off -24 -59
enemy_rot_05_gethit-00.png 441 0 44 67 off -24 -59
enemy_rot_05_stand-00.png 0 72 44 67 off -24 -59
enemy_rot_05_walk-00.png 45 72 44 67 off -24 -59
enemy_rot_07_attack-00.png 90 72 55 67 off -29 -59
enemy_rot_07_gethit-00.png 146 72 55 67 off -29 -59
enemy_rot_07_stand-00.png 202 72 55 67 off -29 -59
enemy_rot_07_walk-00.png 258 72 55 67 off -29 -59
enemy_rot_00_attack-00.png 314 72 63 65 off -32 -58
enemy_rot_00_gethit-00.png 378 72 63 65 off -32 -58
enemy_rot_00_stand-00.png 442 72 63 65 off -32 -58
enemy_rot_00_walk-00.png 0 140 63 65 off -32 -58
enemy_rot_03_attack-00.png 64 140 51 64 off -25 -57
enemy_rot_03_gethit-00.png 116 140 51 64 off -25 -57
enemy_rot_03_stand-00.png 168 140 51 64 off -25 -57
enemy_rot_03_walk-00.png 220 140 51 64 off -25 -57
enemy_rot_04_attack-00.png 272 140 59 63 off -30 -57
enemy_rot_04_gethit-00.png 332 140 59 63 off -30 -57
enemy_rot_04_stand-00.png 392 140 59 63 off -30 -57
enemy_rot_04_walk-00.png 452 140 59 63 off -30 -57
enemy_rot_00_death-00.png 0 206 94 49 off -51 -20
enemy_rot_01_death-00.png 95 206 94 49 off -32 -32
enemy_rot_02_death-00.png 190 206 95 49 off -46 -21
enemy_rot_03_death-00.png 286 206 94 49 off -32 -32
enemy_rot_05_death-00.png 381 206 94 49 off -32 -32
enemy_rot_06_death-00.png 0 256 97 49 off -47 -23
enemy_rot_07_death-00.png 98 256 94 49 off -32 -32
enemy_rot_04_death-00.png 193 256 92 48 off -43 -20
